<?xml version="1.0" encoding="iso-8859-1"?>
<!-- Generator: Adobe Illustrator 21.0.0, SVG Export Plug-In . SVG Version: 6.00 Build 0)  -->
<svg xmlns="http://www.w3.org/2000/svg" xmlns:xlink="http://www.w3.org/1999/xlink" version="1.1" id="Capa_1" x="0px" y="0px" viewBox="0 0 512 512" style="enable-background:new 0 0 512 512;" xml:space="preserve" width="512" height="512">
<g>
	<path d="M437.02,74.98C388.667,26.629,324.38,0,256,0S123.333,26.629,74.98,74.98C26.629,123.333,0,187.62,0,256   s26.629,132.667,74.98,181.02C123.333,485.371,187.62,512,256,512s132.667-26.629,181.02-74.98C485.371,388.667,512,324.38,512,256   S485.371,123.333,437.02,74.98z M415.806,415.806C373.12,458.492,316.367,482,256,482s-117.12-23.508-159.806-66.194   C53.508,373.12,30,316.367,30,256S53.508,138.88,96.194,96.194C138.88,53.508,195.633,30,256,30s117.12,23.508,159.806,66.194   C458.492,138.88,482,195.633,482,256S458.492,373.12,415.806,415.806z"/>
	<path d="M105.822,272.712c0,82.809,67.37,150.178,150.178,150.178s150.178-67.37,150.178-150.178v-15H105.822V272.712z    M181.616,367.031c21.643-19.751,49.929-30.855,79.58-30.855c26.047,0,52.944,9.717,74.42,26.482   C314.399,381.459,286.51,392.89,256,392.89C227.936,392.89,202.091,383.215,181.616,367.031z M375.247,287.712   c-2.407,19.243-9.385,37.084-19.804,52.406c-26.921-21.461-61.075-33.942-94.246-33.942c-37.575,0-73.4,14.214-100.644,39.469   c-12.629-16.489-21.095-36.327-23.798-57.933H375.247z"/>
	<polygon points="389.268,156.002 368.369,134.48 278.176,222.064 407.67,222.064 407.67,192.064 352.132,192.064  "/>
	<polygon points="146.636,134.48 125.736,156.002 162.872,192.064 107.334,192.064 107.334,222.064 236.828,222.064  "/>
</g>















</svg>
