<?xml version="1.0" encoding="utf-8"?>
<!-- Generator: Adobe Illustrator 24.0.2, SVG Export Plug-In . SVG Version: 6.00 Build 0)  -->
<svg version="1.1" id="Calque_1" xmlns="http://www.w3.org/2000/svg" xmlns:xlink="http://www.w3.org/1999/xlink" x="0px" y="0px"
	 viewBox="0 0 434 107.22" style="enable-background:new 0 0 434 107.22;" xml:space="preserve">
<style type="text/css">
	.st0{fill:#E9444D;}
	.st1{fill:#FFFFFF;}
	.st2{fill:#4A4A4A;}
</style>
<g>
	<path class="st0" d="M2.74,0h99.23c1.53,0,2.78,1.24,2.78,2.78v99.23c0,1.53-1.24,2.78-2.78,2.78H2.74c-1.53,0-2.78-1.24-2.78-2.78
		V2.78C-0.04,1.24,1.2,0,2.74,0z"/>
	<path class="st1" d="M53.84,70.02c0.85,1.13,1.69,2.11,2.36,3.19c1.09,1.77,2.02,3.65,3.12,5.42c0.55,0.88,0.31,1.38-0.39,1.98
		c-2.67,2.32-5.76,3.82-9.13,4.8c-6.35,1.85-12.7,1.91-18.98-0.29c-4.87-1.71-8.72-4.82-11.23-9.31c-4.5-8.04-5.47-16.63-2.66-25.36
		c3.05-9.48,10.04-14.8,19.72-16.59c6.58-1.22,13.14-0.79,19.27,2.05c4.74,2.19,3.99,1.76,2.49,5.95c-0.77,2.14-1.96,4.13-2.98,6.18
		c-0.4,0.81-0.91,0.95-1.79,0.48c-3.58-1.9-7.37-3.11-11.5-2.96c-6.18,0.22-11.59,5.07-12.51,11.18c-0.47,3.1-0.34,6.16,0.62,9.14
		c2.08,6.48,8.45,9.81,15.44,8.16C48.61,73.34,51.2,71.96,53.84,70.02z"/>
	<path class="st1" d="M77.6,26.66l8.6,5.03c0.72,0.42,0.91,1.39,0.39,2.05l-6.5,8.28c-0.42,0.54-1.17,0.69-1.76,0.35l-5.01-2.8
		c-0.56-0.31-0.83-0.96-0.66-1.58l2.92-10.51C75.81,26.61,76.81,26.2,77.6,26.66z"/>
	<path class="st1" d="M54.71,14.43l9.88-1.26c0.83-0.11,1.57,0.55,1.56,1.39l-0.1,10.53c-0.01,0.68-0.51,1.26-1.18,1.36l-5.68,0.84
		c-0.63,0.09-1.25-0.26-1.49-0.85L53.6,16.32C53.26,15.48,53.81,14.54,54.71,14.43z"/>
</g>
<g>
	<path class="st2" d="M137.59,37.51h-5.96V24.75c0-1.58-0.26-2.76-0.79-3.54s-1.36-1.18-2.49-1.18c-1.52,0-2.63,0.56-3.32,1.68
		S124,24.67,124,27.24v10.27h-5.96V15.67h4.55l0.8,2.79h0.33c0.59-1,1.43-1.79,2.54-2.35s2.38-0.85,3.81-0.85
		c3.27,0,5.48,1.07,6.64,3.2h0.53c0.59-1.02,1.45-1.8,2.59-2.36s2.42-0.84,3.86-0.84c2.47,0,4.35,0.63,5.62,1.9s1.9,3.3,1.9,6.1
		v14.24h-5.98V24.75c0-1.58-0.26-2.76-0.79-3.54s-1.36-1.18-2.49-1.18c-1.46,0-2.55,0.52-3.27,1.56s-1.08,2.7-1.08,4.96V37.51z"/>
	<path class="st2" d="M171.18,37.51l-1.15-2.97h-0.16c-1,1.26-2.03,2.14-3.1,2.63s-2.44,0.73-4.15,0.73c-2.1,0-3.75-0.6-4.95-1.8
		s-1.81-2.9-1.81-5.12c0-2.32,0.81-4.03,2.43-5.13s4.07-1.71,7.33-1.83l3.79-0.12v-0.96c0-2.21-1.13-3.32-3.4-3.32
		c-1.75,0-3.8,0.53-6.15,1.58l-1.97-4.02c2.51-1.32,5.3-1.97,8.36-1.97c2.93,0,5.18,0.64,6.74,1.91s2.34,3.22,2.34,5.82v14.55
		H171.18z M169.43,27.39l-2.3,0.08c-1.73,0.05-3.02,0.36-3.87,0.94s-1.27,1.45-1.27,2.62c0,1.68,0.96,2.52,2.89,2.52
		c1.38,0,2.48-0.4,3.31-1.19c0.83-0.79,1.24-1.85,1.24-3.16V27.39z"/>
	<path class="st2" d="M138.35,58.38c3.96,0,7.05,1.54,9.29,4.63s3.36,7.32,3.36,12.69c0,5.53-1.15,9.82-3.46,12.85
		c-2.31,3.04-5.45,4.55-9.42,4.55c-3.94,0-7.02-1.43-9.26-4.29h-0.63l-1.53,3.69h-6.98V45.89h9.14v10.85c0,1.38-0.12,3.59-0.36,6.62
		h0.36C130.98,60.04,134.15,58.38,138.35,58.38z M135.41,65.69c-2.26,0-3.91,0.69-4.94,2.08c-1.04,1.39-1.58,3.68-1.62,6.88v0.99
		c0,3.6,0.53,6.17,1.6,7.73c1.07,1.56,2.76,2.34,5.08,2.34c1.88,0,3.37-0.86,4.48-2.59c1.11-1.73,1.66-4.24,1.66-7.54
		s-0.56-5.77-1.68-7.42C138.88,66.52,137.35,65.69,135.41,65.69z"/>
	<path class="st2" d="M173.7,93.11c-5.39,0-9.61-1.49-12.64-4.46c-3.04-2.98-4.55-7.19-4.55-12.64c0-5.61,1.4-9.95,4.21-13.02
		c2.81-3.07,6.69-4.6,11.64-4.6c4.73,0,8.42,1.35,11.06,4.05c2.64,2.7,3.96,6.42,3.96,11.18v4.43h-21.6c0.1,2.6,0.87,4.63,2.31,6.08
		c1.44,1.46,3.46,2.19,6.05,2.19c2.02,0,3.93-0.21,5.72-0.63c1.8-0.42,3.67-1.09,5.63-2.01v7.07c-1.6,0.8-3.31,1.39-5.12,1.78
		S176.32,93.11,173.7,93.11z M172.41,64.88c-1.94,0-3.46,0.61-4.55,1.84c-1.1,1.23-1.73,2.97-1.89,5.23h12.82
		c-0.04-2.26-0.63-4-1.77-5.23S174.35,64.88,172.41,64.88z"/>
	<path class="st2" d="M203.94,92.51h-9.14V45.89h9.14V92.51z"/>
	<path class="st2" d="M222.66,92.51h-9.14V45.89h9.14V92.51z"/>
	<path class="st2" d="M247.41,93.11c-5.39,0-9.61-1.49-12.64-4.46c-3.04-2.98-4.55-7.19-4.55-12.64c0-5.61,1.4-9.95,4.21-13.02
		c2.81-3.07,6.69-4.6,11.64-4.6c4.73,0,8.42,1.35,11.06,4.05c2.64,2.7,3.96,6.42,3.96,11.18v4.43h-21.6c0.1,2.6,0.87,4.63,2.31,6.08
		c1.44,1.46,3.46,2.19,6.05,2.19c2.02,0,3.93-0.21,5.72-0.63c1.8-0.42,3.67-1.09,5.63-2.01v7.07c-1.6,0.8-3.31,1.39-5.12,1.78
		S250.03,93.11,247.41,93.11z M246.12,64.88c-1.94,0-3.46,0.61-4.55,1.84c-1.1,1.23-1.73,2.97-1.89,5.23h12.82
		c-0.04-2.26-0.63-4-1.77-5.23S248.06,64.88,246.12,64.88z"/>
	<path class="st2" d="M298.5,92.51h-9.14V72.94c0-2.42-0.4-4.23-1.21-5.44c-0.81-1.21-2.08-1.81-3.82-1.81
		c-2.34,0-4.04,0.86-5.09,2.58c-1.06,1.72-1.59,4.54-1.59,8.48v15.76h-9.14v-33.5h6.98l1.23,4.28h0.51c0.9-1.54,2.2-2.74,3.9-3.61
		c1.7-0.87,3.64-1.3,5.84-1.3c5.01,0,8.41,1.64,10.19,4.91h0.81c0.9-1.56,2.22-2.77,3.97-3.63c1.75-0.86,3.72-1.29,5.92-1.29
		c3.79,0,6.67,0.97,8.61,2.92c1.95,1.95,2.92,5.07,2.92,9.36v21.84h-9.17V72.94c0-2.42-0.41-4.23-1.21-5.44
		c-0.81-1.21-2.08-1.81-3.82-1.81c-2.24,0-3.91,0.8-5.02,2.4c-1.11,1.6-1.66,4.13-1.66,7.61V92.51z"/>
	<path class="st2" d="M343.93,93.11c-5.39,0-9.61-1.49-12.64-4.46c-3.04-2.98-4.55-7.19-4.55-12.64c0-5.61,1.4-9.95,4.21-13.02
		c2.81-3.07,6.69-4.6,11.64-4.6c4.73,0,8.42,1.35,11.06,4.05c2.64,2.7,3.96,6.42,3.96,11.18v4.43h-21.6c0.1,2.6,0.87,4.63,2.31,6.08
		c1.44,1.46,3.46,2.19,6.05,2.19c2.02,0,3.93-0.21,5.72-0.63c1.8-0.42,3.67-1.09,5.63-2.01v7.07c-1.6,0.8-3.31,1.39-5.12,1.78
		S346.54,93.11,343.93,93.11z M342.64,64.88c-1.94,0-3.46,0.61-4.55,1.84c-1.1,1.23-1.73,2.97-1.89,5.23h12.82
		c-0.04-2.26-0.63-4-1.77-5.23S344.57,64.88,342.64,64.88z"/>
	<path class="st2" d="M383.72,58.38c1.24,0,2.27,0.09,3.09,0.27l-0.69,8.57c-0.74-0.2-1.64-0.3-2.7-0.3c-2.92,0-5.19,0.75-6.82,2.25
		s-2.44,3.6-2.44,6.29v17.05h-9.14v-33.5h6.92l1.35,5.63h0.45c1.04-1.88,2.44-3.39,4.21-4.54S381.64,58.38,383.72,58.38z"/>
	<path class="st2" d="M408.05,93.11c-5.39,0-9.61-1.49-12.64-4.46c-3.04-2.98-4.55-7.19-4.55-12.64c0-5.61,1.4-9.95,4.21-13.02
		c2.81-3.07,6.69-4.6,11.64-4.6c4.73,0,8.42,1.35,11.06,4.05c2.64,2.7,3.96,6.42,3.96,11.18v4.43h-21.6c0.1,2.6,0.87,4.63,2.31,6.08
		c1.44,1.46,3.46,2.19,6.05,2.19c2.02,0,3.93-0.21,5.72-0.63c1.8-0.42,3.67-1.09,5.63-2.01v7.07c-1.6,0.8-3.31,1.39-5.12,1.78
		S410.66,93.11,408.05,93.11z M406.76,64.88c-1.94,0-3.46,0.61-4.55,1.84c-1.1,1.23-1.73,2.97-1.89,5.23h12.82
		c-0.04-2.26-0.63-4-1.77-5.23S408.7,64.88,406.76,64.88z"/>
</g>
</svg>
