<?xml version="1.0" encoding="utf-8"?>
<!-- Generator: Adobe Illustrator 24.0.2, SVG Export Plug-In . SVG Version: 6.00 Build 0)  -->
<svg version="1.1" id="Calque_1" xmlns="http://www.w3.org/2000/svg" xmlns:xlink="http://www.w3.org/1999/xlink" x="0px" y="0px"
	 viewBox="0 0 434 107.22" style="enable-background:new 0 0 434 107.22;" xml:space="preserve">
<style type="text/css">
	.st0{fill:#232F60;}
	.st1{fill:#FFFFFF;}
	.st2{fill:#46B2B8;}
	.st3{fill:#E9444D;}
	.st4{fill:#4A4A4A;}
</style>
<g>
	<path class="st0" d="M2.74,0h99.23c1.53,0,2.78,1.24,2.78,2.78v99.23c0,1.53-1.24,2.78-2.78,2.78H2.74c-1.53,0-2.78-1.24-2.78-2.78
		V2.78C-0.04,1.24,1.2,0,2.74,0z"/>
	<path class="st1" d="M53.84,70.02c0.85,1.13,1.69,2.11,2.36,3.19c1.09,1.77,2.02,3.65,3.12,5.42c0.55,0.88,0.31,1.38-0.39,1.98
		c-2.67,2.32-5.76,3.82-9.13,4.8c-6.35,1.85-12.7,1.91-18.98-0.29c-4.87-1.71-8.72-4.82-11.23-9.31c-4.5-8.04-5.47-16.63-2.66-25.36
		c3.05-9.48,10.04-14.8,19.72-16.59c6.58-1.22,13.14-0.79,19.27,2.05c4.74,2.19,3.99,1.76,2.49,5.95c-0.77,2.14-1.96,4.13-2.98,6.18
		c-0.4,0.81-0.91,0.95-1.79,0.48c-3.58-1.9-7.37-3.11-11.5-2.96c-6.18,0.22-11.59,5.07-12.51,11.18c-0.47,3.1-0.34,6.16,0.62,9.14
		c2.08,6.48,8.45,9.81,15.44,8.16C48.61,73.34,51.2,71.96,53.84,70.02z"/>
	<path class="st2" d="M77.6,26.66l8.6,5.03c0.72,0.42,0.91,1.39,0.39,2.05l-6.5,8.28c-0.42,0.54-1.17,0.69-1.76,0.35l-5.01-2.8
		c-0.56-0.31-0.83-0.96-0.66-1.58l2.92-10.51C75.81,26.61,76.81,26.2,77.6,26.66z"/>
	<path class="st3" d="M54.71,14.43l9.88-1.26c0.83-0.11,1.57,0.55,1.56,1.39l-0.1,10.53c-0.01,0.68-0.51,1.26-1.18,1.36l-5.68,0.84
		c-0.63,0.09-1.25-0.26-1.49-0.85L53.6,16.32C53.26,15.48,53.81,14.54,54.71,14.43z"/>
</g>
<g>
	<path class="st4" d="M137.59,37.51h-5.96V24.75c0-1.58-0.26-2.76-0.79-3.54s-1.36-1.18-2.49-1.18c-1.52,0-2.63,0.56-3.32,1.68
		S124,24.67,124,27.24v10.27h-5.96V15.67h4.55l0.8,2.79h0.33c0.59-1,1.43-1.79,2.54-2.35s2.38-0.85,3.81-0.85
		c3.27,0,5.48,1.07,6.64,3.2h0.53c0.59-1.02,1.45-1.8,2.59-2.36s2.42-0.84,3.86-0.84c2.47,0,4.35,0.63,5.62,1.9s1.9,3.3,1.9,6.1
		v14.24h-5.98V24.75c0-1.58-0.26-2.76-0.79-3.54s-1.36-1.18-2.49-1.18c-1.46,0-2.55,0.52-3.27,1.56s-1.08,2.7-1.08,4.96V37.51z"/>
	<path class="st4" d="M171.18,37.51l-1.15-2.97h-0.16c-1,1.26-2.03,2.14-3.1,2.63s-2.44,0.73-4.15,0.73c-2.1,0-3.75-0.6-4.95-1.8
		s-1.81-2.9-1.81-5.12c0-2.32,0.81-4.03,2.43-5.13s4.07-1.71,7.33-1.83l3.79-0.12v-0.96c0-2.21-1.13-3.32-3.4-3.32
		c-1.75,0-3.8,0.53-6.15,1.58l-1.97-4.02c2.51-1.32,5.3-1.97,8.36-1.97c2.93,0,5.18,0.64,6.74,1.91s2.34,3.22,2.34,5.82v14.55
		H171.18z M169.43,27.39l-2.3,0.08c-1.73,0.05-3.02,0.36-3.87,0.94s-1.27,1.45-1.27,2.62c0,1.68,0.96,2.52,2.89,2.52
		c1.38,0,2.48-0.4,3.31-1.19c0.83-0.79,1.24-1.85,1.24-3.16V27.39z"/>
	<path class="st4" d="M127.68,92.51l-12.76-33.5h9.56l6.47,19.09c0.72,2.42,1.17,4.7,1.35,6.86h0.18c0.1-1.92,0.55-4.21,1.35-6.86
		l6.44-19.09h9.56l-12.76,33.5H127.68z"/>
	<path class="st4" d="M154.23,50.35c0-2.98,1.66-4.46,4.97-4.46c3.32,0,4.97,1.49,4.97,4.46c0,1.42-0.42,2.52-1.24,3.31
		c-0.83,0.79-2.07,1.18-3.73,1.18C155.88,54.84,154.23,53.35,154.23,50.35z M163.75,92.51h-9.14v-33.5h9.14V92.51z"/>
	<path class="st4" d="M188.5,93.11c-5.39,0-9.61-1.49-12.64-4.46c-3.04-2.98-4.55-7.19-4.55-12.64c0-5.61,1.4-9.95,4.21-13.02
		c2.81-3.07,6.69-4.6,11.64-4.6c4.73,0,8.42,1.35,11.06,4.05c2.64,2.7,3.96,6.42,3.96,11.18v4.43h-21.6c0.1,2.6,0.87,4.63,2.31,6.08
		c1.44,1.46,3.46,2.19,6.05,2.19c2.02,0,3.93-0.21,5.72-0.63c1.8-0.42,3.67-1.09,5.63-2.01v7.07c-1.6,0.8-3.31,1.39-5.12,1.78
		S191.12,93.11,188.5,93.11z M187.22,64.88c-1.94,0-3.46,0.61-4.55,1.84c-1.1,1.23-1.73,2.97-1.89,5.23h12.82
		c-0.04-2.26-0.63-4-1.77-5.23S189.15,64.88,187.22,64.88z"/>
</g>
</svg>
