<?xml version="1.0" encoding="utf-8"?>
<!-- Generator: Adobe Illustrator 24.0.2, SVG Export Plug-In . SVG Version: 6.00 Build 0)  -->
<svg version="1.1" id="Calque_1" xmlns="http://www.w3.org/2000/svg" xmlns:xlink="http://www.w3.org/1999/xlink" x="0px" y="0px"
	 viewBox="0 0 434 107.22" style="enable-background:new 0 0 434 107.22;" xml:space="preserve">
<style type="text/css">
	.st0{fill:#46B2B8;}
	.st1{fill:#FFFFFF;}
	.st2{fill:#4A4A4A;}
</style>
<g>
	<path class="st0" d="M2.74,0h99.23c1.53,0,2.78,1.24,2.78,2.78v99.23c0,1.53-1.24,2.78-2.78,2.78H2.74c-1.53,0-2.78-1.24-2.78-2.78
		V2.78C-0.04,1.24,1.2,0,2.74,0z"/>
	<path class="st1" d="M53.84,70.02c0.85,1.13,1.69,2.11,2.36,3.19c1.09,1.77,2.02,3.65,3.12,5.42c0.55,0.88,0.31,1.38-0.39,1.98
		c-2.67,2.32-5.76,3.82-9.13,4.8c-6.35,1.85-12.7,1.91-18.98-0.29c-4.87-1.71-8.72-4.82-11.23-9.31c-4.5-8.04-5.47-16.63-2.66-25.36
		c3.05-9.48,10.04-14.8,19.72-16.59c6.58-1.22,13.14-0.79,19.27,2.05c4.74,2.19,3.99,1.76,2.49,5.95c-0.77,2.14-1.96,4.13-2.98,6.18
		c-0.4,0.81-0.91,0.95-1.79,0.48c-3.58-1.9-7.37-3.11-11.5-2.96c-6.18,0.22-11.59,5.07-12.51,11.18c-0.47,3.1-0.34,6.16,0.62,9.14
		c2.08,6.48,8.45,9.81,15.44,8.16C48.61,73.34,51.2,71.96,53.84,70.02z"/>
	<path class="st1" d="M77.6,26.66l8.6,5.03c0.72,0.42,0.91,1.39,0.39,2.05l-6.5,8.28c-0.42,0.54-1.17,0.69-1.76,0.35l-5.01-2.8
		c-0.56-0.31-0.83-0.96-0.66-1.58l2.92-10.51C75.81,26.61,76.81,26.2,77.6,26.66z"/>
	<path class="st1" d="M54.71,14.43l9.88-1.26c0.83-0.11,1.57,0.55,1.56,1.39l-0.1,10.53c-0.01,0.68-0.51,1.26-1.18,1.36l-5.68,0.84
		c-0.63,0.09-1.25-0.26-1.49-0.85L53.6,16.32C53.26,15.48,53.81,14.54,54.71,14.43z"/>
</g>
<g>
	<path class="st2" d="M137.59,37.51h-5.96V24.75c0-1.58-0.26-2.76-0.79-3.54s-1.36-1.18-2.49-1.18c-1.52,0-2.63,0.56-3.32,1.68
		S124,24.67,124,27.24v10.27h-5.96V15.67h4.55l0.8,2.79h0.33c0.59-1,1.43-1.79,2.54-2.35s2.38-0.85,3.81-0.85
		c3.27,0,5.48,1.07,6.64,3.2h0.53c0.59-1.02,1.45-1.8,2.59-2.36s2.42-0.84,3.86-0.84c2.47,0,4.35,0.63,5.62,1.9s1.9,3.3,1.9,6.1
		v14.24h-5.98V24.75c0-1.58-0.26-2.76-0.79-3.54s-1.36-1.18-2.49-1.18c-1.46,0-2.55,0.52-3.27,1.56s-1.08,2.7-1.08,4.96V37.51z"/>
	<path class="st2" d="M177.16,26.55c0,3.55-0.94,6.33-2.81,8.34s-4.49,3.01-7.83,3.01c-2.1,0-3.95-0.46-5.55-1.38
		s-2.83-2.24-3.69-3.96c-0.86-1.72-1.29-3.72-1.29-6.02c0-3.57,0.93-6.34,2.79-8.32s4.48-2.97,7.85-2.97c2.1,0,3.95,0.46,5.55,1.37
		s2.83,2.22,3.69,3.93S177.16,24.26,177.16,26.55z M162.06,26.55c0,2.16,0.35,3.8,1.06,4.9c0.71,1.11,1.87,1.66,3.47,1.66
		c1.59,0,2.73-0.55,3.43-1.65c0.7-1.1,1.04-2.74,1.04-4.91c0-2.16-0.35-3.78-1.05-4.86s-1.86-1.62-3.46-1.62
		c-1.59,0-2.73,0.54-3.44,1.61S162.06,24.38,162.06,26.55z"/>
	<path class="st2" d="M202.24,37.51h-5.96V24.75c0-1.58-0.28-2.76-0.84-3.54s-1.45-1.18-2.68-1.18c-1.67,0-2.87,0.56-3.61,1.67
		s-1.11,2.96-1.11,5.54v10.27h-5.96V15.67h4.55l0.8,2.79h0.33c0.66-1.05,1.58-1.85,2.74-2.39s2.49-0.81,3.97-0.81
		c2.54,0,4.47,0.69,5.78,2.06s1.97,3.36,1.97,5.95V37.51z"/>
	<path class="st2" d="M138.11,93.11c-3.94,0-7.02-1.43-9.26-4.29h-0.48c0.32,2.8,0.48,4.41,0.48,4.85v13.57h-9.14V59.01h7.43
		l1.29,4.34h0.42c2.14-3.32,5.3-4.97,9.5-4.97c3.96,0,7.05,1.53,9.29,4.58s3.36,7.3,3.36,12.73c0,3.58-0.52,6.68-1.57,9.32
		s-2.54,4.64-4.48,6.02C143,92.42,140.72,93.11,138.11,93.11z M135.41,65.69c-2.26,0-3.91,0.69-4.94,2.08
		c-1.04,1.39-1.58,3.68-1.62,6.88v0.99c0,3.6,0.53,6.17,1.6,7.73c1.07,1.56,2.76,2.34,5.08,2.34c4.09,0,6.14-3.38,6.14-10.13
		c0-3.3-0.5-5.77-1.51-7.42C139.15,66.52,137.57,65.69,135.41,65.69z"/>
	<path class="st2" d="M177.24,58.38c1.24,0,2.27,0.09,3.09,0.27l-0.69,8.57c-0.74-0.2-1.64-0.3-2.7-0.3c-2.92,0-5.19,0.75-6.82,2.25
		s-2.44,3.6-2.44,6.29v17.05h-9.14v-33.5h6.92l1.35,5.63h0.45c1.04-1.88,2.44-3.39,4.21-4.54S175.16,58.38,177.24,58.38z"/>
	<path class="st2" d="M216.85,75.7c0,5.45-1.44,9.72-4.31,12.79c-2.88,3.08-6.88,4.61-12.02,4.61c-3.22,0-6.05-0.7-8.51-2.11
		c-2.46-1.41-4.34-3.43-5.66-6.07s-1.98-5.71-1.98-9.23c0-5.47,1.43-9.73,4.28-12.76c2.86-3.04,6.87-4.55,12.05-4.55
		c3.22,0,6.05,0.7,8.51,2.1c2.46,1.4,4.34,3.41,5.66,6.02C216.19,69.12,216.85,72.18,216.85,75.7z M193.69,75.7
		c0,3.32,0.54,5.82,1.63,7.52c1.09,1.7,2.86,2.55,5.32,2.55c2.44,0,4.19-0.84,5.26-2.53c1.07-1.69,1.6-4.2,1.6-7.54
		c0-3.32-0.54-5.8-1.62-7.46s-2.85-2.49-5.3-2.49c-2.44,0-4.19,0.82-5.27,2.47C194.23,69.87,193.69,72.36,193.69,75.7z"/>
	<path class="st2" d="M242.92,65.87h-7.91v26.64h-9.14V65.87h-5.03v-4.4l5.03-2.46v-2.46c0-3.82,0.94-6.6,2.82-8.36
		c1.88-1.76,4.88-2.64,9.02-2.64c3.16,0,5.96,0.47,8.42,1.41l-2.34,6.71c-1.84-0.58-3.54-0.87-5.09-0.87c-1.3,0-2.24,0.39-2.82,1.15
		c-0.58,0.77-0.87,1.75-0.87,2.95v2.1h7.91V65.87z"/>
</g>
</svg>
